{
   "response":{
      "status":"ok",
      "userTier":"developer",
      "total":67441,
      "startIndex":1,
      "pageSize":10,
      "currentPage":1,
      "pages":6745,
      "orderBy":"relevance",
      "results":[
         {
            "id":"sport/2021/sep/01/unpredictable-series-england-india-seeking-stabilty-fourth-test-the-oval",
            "type":"article",
            "sectionId":"sport",
            "sectionName":"Sport",
            "webPublicationDate":"2021-09-01T19:00:03Z",
            "webTitle":"Unpredictable series leaves England and India seeking stability",
            "webUrl":"https://www.theguardian.com/sport/2021/sep/01/unpredictable-series-england-india-seeking-stabilty-fourth-test-the-oval",
            "apiUrl":"https://content.guardianapis.com/sport/2021/sep/01/unpredictable-series-england-india-seeking-stabilty-fourth-test-the-oval",
            "isHosted":false,
            "pillarId":"pillar/sport",
            "pillarName":"Sport"
         },
         {
            "id":"sport/blog/2021/sep/06/england-bewitched-by-india-with-thakur-and-bumrah-meriting-acclaim",
            "type":"article",
            "sectionId":"sport",
            "sectionName":"Sport",
            "webPublicationDate":"2021-09-06T19:33:34Z",
            "webTitle":"England bewitched by India with Shardul Thakur meriting acclaim | Simon Burnton",
            "webUrl":"https://www.theguardian.com/sport/blog/2021/sep/06/england-bewitched-by-india-with-thakur-and-bumrah-meriting-acclaim",
            "apiUrl":"https://content.guardianapis.com/sport/blog/2021/sep/06/england-bewitched-by-india-with-thakur-and-bumrah-meriting-acclaim",
            "isHosted":false,
            "pillarId":"pillar/sport",
            "pillarName":"Sport"
         },
         {
            "id":"world/2021/jul/01/british-rule-in-india-an-abusive-relationship",
            "type":"article",
            "sectionId":"world",
            "sectionName":"World news",
            "webPublicationDate":"2021-07-01T17:26:20Z",
            "webTitle":"British rule in India: an abusive relationship | Letters",
            "webUrl":"https://www.theguardian.com/world/2021/jul/01/british-rule-in-india-an-abusive-relationship",
            "apiUrl":"https://content.guardianapis.com/world/2021/jul/01/british-rule-in-india-an-abusive-relationship",
            "isHosted":false,
            "pillarId":"pillar/news",
            "pillarName":"News"
         },
         {
            "id":"sport/live/2021/sep/05/england-v-india-fourth-test-day-four-live",
            "type":"liveblog",
            "sectionId":"sport",
            "sectionName":"Sport",
            "webPublicationDate":"2021-09-05T17:54:51Z",
            "webTitle":"England v India: fourth Test, day four – as it happened",
            "webUrl":"https://www.theguardian.com/sport/live/2021/sep/05/england-v-india-fourth-test-day-four-live",
            "apiUrl":"https://content.guardianapis.com/sport/live/2021/sep/05/england-v-india-fourth-test-day-four-live",
            "isHosted":false,
            "pillarId":"pillar/sport",
            "pillarName":"Sport"
         },
         {
            "id":"sport/blog/2021/aug/28/virat-kohli-caught-out-again-as-india-captains-struggles-continue",
            "type":"article",
            "sectionId":"sport",
            "sectionName":"Sport",
            "webPublicationDate":"2021-08-28T16:23:21Z",
            "webTitle":"Virat Kohli caught out again as India captain’s struggles continue | Anand Vasu",
            "webUrl":"https://www.theguardian.com/sport/blog/2021/aug/28/virat-kohli-caught-out-again-as-india-captains-struggles-continue",
            "apiUrl":"https://content.guardianapis.com/sport/blog/2021/aug/28/virat-kohli-caught-out-again-as-india-captains-struggles-continue",
            "isHosted":false,
            "pillarId":"pillar/sport",
            "pillarName":"Sport"
         },
         {
            "id":"world/2021/sep/13/india-weighs-up-new-security-risks-in-wake-of-taliban-takeover",
            "type":"article",
            "sectionId":"world",
            "sectionName":"World news",
            "webPublicationDate":"2021-09-13T04:00:11Z",
            "webTitle":"India weighs up new security risks in wake of Taliban takeover",
            "webUrl":"https://www.theguardian.com/world/2021/sep/13/india-weighs-up-new-security-risks-in-wake-of-taliban-takeover",
            "apiUrl":"https://content.guardianapis.com/world/2021/sep/13/india-weighs-up-new-security-risks-in-wake-of-taliban-takeover",
            "isHosted":false,
            "pillarId":"pillar/news",
            "pillarName":"News"
         },
         {
            "id":"sport/2021/sep/10/england-india-fifth-test-old-trafford-called-off-cricket",
            "type":"article",
            "sectionId":"sport",
            "sectionName":"Sport",
            "webPublicationDate":"2021-09-10T15:15:57Z",
            "webTitle":"‘We had friends coming from India’: cancelled Test leaves fans devastated",
            "webUrl":"https://www.theguardian.com/sport/2021/sep/10/england-india-fifth-test-old-trafford-called-off-cricket",
            "apiUrl":"https://content.guardianapis.com/sport/2021/sep/10/england-india-fifth-test-old-trafford-called-off-cricket",
            "isHosted":false,
            "pillarId":"pillar/sport",
            "pillarName":"Sport"
         },
         {
            "id":"sport/live/2021/aug/12/england-v-india-second-test-day-one-live",
            "type":"liveblog",
            "sectionId":"sport",
            "sectionName":"Sport",
            "webPublicationDate":"2021-08-12T18:47:25Z",
            "webTitle":"England v India: second Test, day one – as it happened",
            "webUrl":"https://www.theguardian.com/sport/live/2021/aug/12/england-v-india-second-test-day-one-live",
            "apiUrl":"https://content.guardianapis.com/sport/live/2021/aug/12/england-v-india-second-test-day-one-live",
            "isHosted":false,
            "pillarId":"pillar/sport",
            "pillarName":"Sport"
         },
         {
            "id":"sport/2021/aug/16/chirp-war-india-also-win-escalating-swearing-contest-with-england",
            "type":"article",
            "sectionId":"sport",
            "sectionName":"Sport",
            "webPublicationDate":"2021-08-16T20:41:06Z",
            "webTitle":"Chirp war: India also win escalating swearing contest with England",
            "webUrl":"https://www.theguardian.com/sport/2021/aug/16/chirp-war-india-also-win-escalating-swearing-contest-with-england",
            "apiUrl":"https://content.guardianapis.com/sport/2021/aug/16/chirp-war-india-also-win-escalating-swearing-contest-with-england",
            "isHosted":false,
            "pillarId":"pillar/sport",
            "pillarName":"Sport"
         },
         {
            "id":"world/2021/jul/18/indonesia-daily-covid-infections-higher-than-india-and-brazil",
            "type":"article",
            "sectionId":"world",
            "sectionName":"World news",
            "webPublicationDate":"2021-07-18T14:10:43Z",
            "webTitle":"Indonesia’s daily Covid infections higher than India and Brazil",
            "webUrl":"https://www.theguardian.com/world/2021/jul/18/indonesia-daily-covid-infections-higher-than-india-and-brazil",
            "apiUrl":"https://content.guardianapis.com/world/2021/jul/18/indonesia-daily-covid-infections-higher-than-india-and-brazil",
            "isHosted":false,
            "pillarId":"pillar/news",
            "pillarName":"News"
         }
      ]
   }
}